\relax 
\providecommand\hyper@newdestlabel[2]{}
\providecommand*\new@tpo@label[2]{}
\providecommand\babel@aux[2]{}
\@nameuse{bbl@beforestart}
\catcode `"\active 
\providecommand\HyperFirstAtBeginDocument{\AtBeginDocument}
\HyperFirstAtBeginDocument{\ifx\hyper@anchor\@undefined
\global\let\oldcontentsline\contentsline
\gdef\contentsline#1#2#3#4{\oldcontentsline{#1}{#2}{#3}}
\global\let\oldnewlabel\newlabel
\gdef\newlabel#1#2{\newlabelxx{#1}#2}
\gdef\newlabelxx#1#2#3#4#5#6{\oldnewlabel{#1}{{#2}{#3}}}
\AtEndDocument{\ifx\hyper@anchor\@undefined
\let\contentsline\oldcontentsline
\let\newlabel\oldnewlabel
\fi}
\fi}
\global\let\hyper@last\relax 
\gdef\HyperFirstAtBeginDocument#1{#1}
\providecommand\HyField@AuxAddToFields[1]{}
\providecommand\HyField@AuxAddToCoFields[2]{}
\providecommand\BKM@entry[2]{}
\BKM@entry{id=1,dest={73656374696F6E2E31},srcline={15}}{536574757020616E64206578706572696D656E74}
\BKM@entry{id=2,dest={73656374696F6E2E32},srcline={24}}{44617461}
\babel@aux{ngerman}{}
\@writefile{toc}{\contentsline {section}{\numberline {1}Setup and experiment}{1}{section.1}\protected@file@percent }
\@writefile{toc}{\contentsline {section}{\numberline {2}Data}{1}{section.2}\protected@file@percent }
\BKM@entry{id=3,dest={73656374696F6E2E33},srcline={191}}{416E616C79736973}
\BKM@entry{id=4,dest={73756273656374696F6E2E332E31},srcline={192}}{57686174204920776F756C642068617665206578706563746564}
\BKM@entry{id=5,dest={73756273656374696F6E2E332E32},srcline={205}}{4142795353}
\@writefile{toc}{\contentsline {section}{\numberline {3}Analysis}{3}{section.3}\protected@file@percent }
\@writefile{toc}{\contentsline {subsection}{\numberline {3.1}What I would have expected}{3}{subsection.3.1}\protected@file@percent }
\BKM@entry{id=6,dest={73756273656374696F6E2E332E33},srcline={210}}{4D615375524341}
\BKM@entry{id=7,dest={73756273656374696F6E2E332E34},srcline={223}}{535061646573}
\BKM@entry{id=8,dest={73756273656374696F6E2E332E35},srcline={234}}{436F6E636C7573696F6E73}
\@writefile{toc}{\contentsline {subsection}{\numberline {3.2}ABySS}{4}{subsection.3.2}\protected@file@percent }
\@writefile{toc}{\contentsline {subsection}{\numberline {3.3}MaSuRCA}{4}{subsection.3.3}\protected@file@percent }
\@writefile{toc}{\contentsline {subsection}{\numberline {3.4}SPades}{4}{subsection.3.4}\protected@file@percent }
\@writefile{toc}{\contentsline {subsection}{\numberline {3.5}Conclusions}{4}{subsection.3.5}\protected@file@percent }
\BKM@entry{id=9,dest={73756273656374696F6E2E332E36},srcline={252}}{4F70656E205175657374696F6E73}
\BKM@entry{id=10,dest={73656374696F6E2E34},srcline={262}}{536F7572636573}
\@writefile{toc}{\contentsline {subsection}{\numberline {3.6}Open Questions}{5}{subsection.3.6}\protected@file@percent }
\@writefile{toc}{\contentsline {section}{\numberline {4}Sources}{5}{section.4}\protected@file@percent }
\gdef \@abspage@last{5}
